Take-home Exercise 01 – ISSS608 Coursework
…
3. Data wrangling & data prepration

3.1 Importing the data

The code chunk below imports the Heart Attack in Japan: Youth vs. Adult dataset, downloaded from Kaggle, using the read_csv() function from the readr package.

Code

heart_attack <- read_csv("data/japan_heart_attack_dataset.csv", show_col_types = FALSE)

heart_attack

# A tibble: 30,000 × 32
     Age Gender Region Smoking_History Diabetes_History Hypertension_History
   <dbl> <chr>  <chr>  <chr>           <chr>            <chr>               
 1    56 Male   Urban  Yes             No               No                  
 2    69 Male   Urban  No              No               No                  
 3    46 Male   Rural  Yes             No               No                  
 4    32 Female Urban  No              No               No                  
 5    60 Female Rural  No              No               No                  
 6    25 Female Rural  No              No               No                  
 7    78 Male   Urban  No              Yes              Yes                 
 8    38 Female Urban  Yes             No               No                  
 9    56 Male   Rural  No              No               Yes                 
10    75 Male   Urban  No              No               No                  
# ℹ 29,990 more rows
# ℹ 26 more variables: Cholesterol_Level <dbl>, Physical_Activity <chr>,
#   Diet_Quality <chr>, Alcohol_Consumption <chr>, Stress_Levels <dbl>,
#   BMI <dbl>, Heart_Rate <dbl>, Systolic_BP <dbl>, Diastolic_BP <dbl>,
#   Family_History <chr>, Heart_Attack_Occurrence <chr>, Extra_Column_1 <dbl>,
#   Extra_Column_2 <dbl>, Extra_Column_3 <dbl>, Extra_Column_4 <dbl>,
#   Extra_Column_5 <dbl>, Extra_Column_6 <dbl>, Extra_Column_7 <dbl>, …
…
The select() function in the dplyr package is used to obtain these rows, and stored as the R object, heart_attack_1.

Code

heart_attack_1 <- heart_attack %>% 
  select("Age", "Gender", "Region", "Smoking_History", "Diabetes_History", 
         "Hypertension_History", "Cholesterol_Level", "Physical_Activity", 
         "Diet_Quality", "Alcohol_Consumption", "Stress_Levels", "BMI", 
         "Heart_Rate", "Systolic_BP", "Diastolic_BP", "Family_History", 
         "Heart_Attack_Occurrence")

heart_attack_1

# A tibble: 30,000 × 17
     Age Gender Region Smoking_History Diabetes_History Hypertension_History
   <dbl> <chr>  <chr>  <chr>           <chr>            <chr>               
 1    56 Male   Urban  Yes             No               No                  
 2    69 Male   Urban  No              No               No                  
 3    46 Male   Rural  Yes             No               No                  
 4    32 Female Urban  No              No               No                  
 5    60 Female Rural  No              No               No                  
 6    25 Female Rural  No              No               No                  
 7    78 Male   Urban  No              Yes              Yes                 
 8    38 Female Urban  Yes             No               No                  
 9    56 Male   Rural  No              No               Yes                 
10    75 Male   Urban  No              No               No                  
# ℹ 29,990 more rows
# ℹ 11 more variables: Cholesterol_Level <dbl>, Physical_Activity <chr>,
#   Diet_Quality <chr>, Alcohol_Consumption <chr>, Stress_Levels <dbl>,
#   BMI <dbl>, Heart_Rate <dbl>, Systolic_BP <dbl>, Diastolic_BP <dbl>,
#   Family_History <chr>, Heart_Attack_Occurrence <chr>
…
    Diastolic_BP_Category = case_when(
      Diastolic_BP < 80 ~ "Normal",
      Diastolic_BP >= 80 & Diastolic_BP < 90 ~ "Elevated",
      Diastolic_BP >= 90 & Diastolic_BP < 100 ~ "Hypertension Stage 1",
      Diastolic_BP >= 100 ~ "Hypertension Stage 2",
      TRUE ~ "Unknown"
    )
  )

# View the modified dataframe with new categorical variables
heart_attack_1

# A tibble: 30,000 × 24
     Age Gender Region Smoking_History Diabetes_History Hypertension_History
   <dbl> <chr>  <chr>  <chr>           <chr>            <chr>               
 1    56 Male   Urban  Yes             No               No                  
 2    69 Male   Urban  No              No               No                  
 3    46 Male   Rural  Yes             No               No                  
 4    32 Female Urban  No              No               No                  
 5    60 Female Rural  No              No               No                  
 6    25 Female Rural  No              No               No                  
 7    78 Male   Urban  No              Yes              Yes                 
 8    38 Female Urban  Yes             No               No                  
 9    56 Male   Rural  No              No               Yes                 
10    75 Male   Urban  No              No               No                  
# ℹ 29,990 more rows
# ℹ 18 more variables: Cholesterol_Level <dbl>, Physical_Activity <chr>,
#   Diet_Quality <chr>, Alcohol_Consumption <chr>, Stress_Levels <dbl>,
#   BMI <dbl>, Heart_Rate <dbl>, Systolic_BP <dbl>, Diastolic_BP <dbl>,
#   Family_History <chr>, Heart_Attack_Occurrence <chr>,
#   Cholesterol_Level_Category <chr>, Rounded_Stress_Levels <dbl>,
#   Stress_Levels_Category <chr>, BMI_Category <chr>, …
…
# View the updated dataset
heart_attack_2

# A tibble: 30,000 × 25
     Age Gender Region Smoking_History Diabetes_History Hypertension_History
   <dbl> <chr>  <chr>  <chr>           <chr>            <chr>               
 1    56 Male   Urban  Yes             No               No                  
 2    69 Male   Urban  No              No               No                  
 3    46 Male   Rural  Yes             No               No                  
 4    32 Female Urban  No              No               No                  
 5    60 Female Rural  No              No               No                  
 6    25 Female Rural  No              No               No                  
 7    78 Male   Urban  No              Yes              Yes                 
 8    38 Female Urban  Yes             No               No                  
 9    56 Male   Rural  No              No               Yes                 
10    75 Male   Urban  No              No               No                  
# ℹ 29,990 more rows
# ℹ 19 more variables: Cholesterol_Level <dbl>, Physical_Activity <chr>,
#   Diet_Quality <chr>, Alcohol_Consumption <chr>, Stress_Levels <dbl>,
#   BMI <dbl>, Heart_Rate <dbl>, Systolic_BP <dbl>, Diastolic_BP <dbl>,
#   Family_History <chr>, Heart_Attack_Occurrence <chr>,
#   Cholesterol_Level_Category <chr>, Rounded_Stress_Levels <dbl>,
#   Stress_Levels_Category <chr>, BMI_Category <chr>, …
…
Code

# Count the number of individuals by exact age
age_distribution <- heart_attack_2 %>%
  group_by(Age) %>%
  summarise(Count = n()) %>%
  arrange(Age)

# Print age count
print(age_distribution)

# A tibble: 62 × 2
     Age Count
   <dbl> <int>
 1    18   478
 2    19   480
 3    20   483
 4    21   483
 5    22   468
 6    23   462
 7    24   466
 8    25   493
 9    26   480
10    27   493
# ℹ 52 more rows
…
