Hands-on Exercise 00: Working with tidyverse – ISSS608 Coursework
…
write_rds(popdata_long, "rds/popdata_long.rds") #rds: compact r file

Selecting Data

Code

realis2019_selected <- realis2019 %>%
  select(`Project Name`,
         `Transacted Price ($)`,
         `Type of Sale`,
         `Unit Price ($ psm)`,
         `Property Type`)
realis2019_selected

# A tibble: 19,515 × 5
   `Project Name`     `Transacted Price ($)` `Type of Sale` `Unit Price ($ psm)`
   <chr>                               <dbl> <chr>                         <dbl>
 1 PEIRCE VIEW                        840000 Resale                         7434
 2 FLORIDA PARK                      3040000 Resale                         9737
 3 BULLION PARK                       860000 Resale                        11467
 4 CASTLE GREEN                      1000000 Resale                         9346
 5 HAPPY ESTATE                      7000000 Resale                        10183
 6 TEACHER'S HOUSING…                2880000 Resale                        12659
 7 THE PANORAMA                      1510000 Resale                        16064
 8 THE PANORAMA                       710000 Resale                        16905
 9 CHIP THYE GARDEN                  2800000 Resale                        13500
10 TEACHER'S HOUSING…                2300000 Resale                         9935
# ℹ 19,505 more rows
# ℹ 1 more variable: `Property Type` <chr>

Filtering Data using dplyr package

Code

realis2019_filtered <- realis2019_selected %>%
  filter (`Property Type` == "Condominium" |
            `Property Type` == "Apartment") %>%
  filter (`Type of Sale` == "New Sale") %>%
  filter (`Unit Price ($ psm)` <= 13000)

realis2019_filtered

# A tibble: 87 × 5
   `Project Name`     `Transacted Price ($)` `Type of Sale` `Unit Price ($ psm)`
   <chr>                               <dbl> <chr>                         <dbl>
 1 RIVERFRONT RESIDE…                1029000 New Sale                      12863
 2 RIVERFRONT RESIDE…                 871000 New Sale                      12809
 3 RIVERFRONT RESIDE…                1940000 New Sale                      12848
 4 RIVERFRONT RESIDE…                1030000 New Sale                      12875
 5 RIVERFRONT RESIDE…                2061000 New Sale                      12962
 6 RIVERFRONT RESIDE…                 762000 New Sale                      12915
 7 RIVERFRONT RESIDE…                1001000 New Sale                      12513
 8 RIVERFRONT RESIDE…                1271000 New Sale                      12838
 9 RIVERFRONT RESIDE…                1310000 New Sale                      12970
10 RIVERFRONT RESIDE…                1339000 New Sale                      13000
# ℹ 77 more rows
# ℹ 1 more variable: `Property Type` <chr>
…
realis2019_end <- realis2019 %>%
  select(`Project Name`,
         `Transacted Price ($)`,
         `Type of Sale`,
         `Unit Price ($ psm)`,
         `Property Type`)   %>%
  filter (`Property Type` == "Condominium" |
            `Property Type` == "Apartment") %>%
  filter (`Type of Sale` == "New Sale") %>%
  filter (`Unit Price ($ psm)` <= 13000)

realis2019_end

# A tibble: 87 × 5
   `Project Name`     `Transacted Price ($)` `Type of Sale` `Unit Price ($ psm)`
   <chr>                               <dbl> <chr>                         <dbl>
 1 RIVERFRONT RESIDE…                1029000 New Sale                      12863
 2 RIVERFRONT RESIDE…                 871000 New Sale                      12809
 3 RIVERFRONT RESIDE…                1940000 New Sale                      12848
 4 RIVERFRONT RESIDE…                1030000 New Sale                      12875
 5 RIVERFRONT RESIDE…                2061000 New Sale                      12962
 6 RIVERFRONT RESIDE…                 762000 New Sale                      12915
 7 RIVERFRONT RESIDE…                1001000 New Sale                      12513
 8 RIVERFRONT RESIDE…                1271000 New Sale                      12838
 9 RIVERFRONT RESIDE…                1310000 New Sale                      12970
10 RIVERFRONT RESIDE…                1339000 New Sale                      13000
# ℹ 77 more rows
# ℹ 1 more variable: `Property Type` <chr>
…
