Hands-on Exercise 04b – ISSS608 Coursework
…
pacman::p_load(ggstatsplot, tidyverse)

4.3.2 Importing data

In this exercise, Exam_data.csv will be used. The `read_csv() function from the readr package is used to import the dataset into R and store it as a tibble data frame.

Code

exam <- read_csv("data/Exam_data.csv", show_col_types = FALSE)

Code

stat(exam)

# A tibble: 322 × 7
   ID         CLASS GENDER RACE    ENGLISH MATHS SCIENCE
   <chr>      <chr> <chr>  <chr>     <dbl> <dbl>   <dbl>
 1 Student321 3I    Male   Malay        21     9      15
 2 Student305 3I    Female Malay        24    22      16
 3 Student289 3H    Male   Chinese      26    16      16
 4 Student227 3F    Male   Chinese      27    77      31
 5 Student318 3I    Male   Malay        27    11      25
 6 Student306 3I    Female Malay        31    16      16
 7 Student313 3I    Male   Chinese      31    21      25
 8 Student316 3I    Male   Malay        31    18      27
 9 Student312 3I    Male   Malay        33    19      15
10 Student297 3H    Male   Indian       34    49      37
# ℹ 312 more rows
…
