Hands-on Exercise 05b – ISSS608 Coursework
…
Code

wine[duplicated(wine),]

# A tibble: 1,177 × 13
   `fixed acidity` `volatile acidity` `citric acid` `residual sugar` chlorides
             <dbl>              <dbl>         <dbl>            <dbl>     <dbl>
 1             7.4              0.7            0                1.9      0.076
 2             7.5              0.5            0.36             6.1      0.071
 3             7.9              0.43           0.21             1.6      0.106
 4             7.3              0.45           0.36             5.9      0.074
 5             7.2              0.725          0.05             4.65     0.086
 6             8.8              0.41           0.64             2.2      0.093
 7             8.6              0.49           0.28             1.9      0.11 
 8             7.7              0.49           0.26             1.9      0.062
 9             8.1              0.545          0.18             1.9      0.08 
10             8.1              0.575          0.22             2.1      0.077
# ℹ 1,167 more rows
# ℹ 8 more variables: `free sulfur dioxide` <dbl>,
#   `total sulfur dioxide` <dbl>, density <dbl>, pH <dbl>, sulphates <dbl>,
#   alcohol <dbl>, quality <dbl>, type <chr>
…
