Hands-on Exercise 09 – ISSS608 Coursework
…
A new column, Weekday, is created in the dataset to store the output of wday().

The Weekday values are in an ordinal scale (ordered categories).

9.3.6 Reviewing the revised date fields

Table below shows the data structure of the reformatted GAStech_edges data frame

Code

list(GAStech_edges)

[[1]]
# A tibble: 9,063 × 10
   source target SentDate SentTime Subject   MainSubject sourceLabel targetLabel
    <dbl>  <dbl> <chr>    <time>   <chr>     <chr>       <chr>       <chr>      
 1     43     41 6/1/2014 08:39    GT-Seism… Work relat… Sven.Flecha Isak.Baza  
 2     43     40 6/1/2014 08:39    GT-Seism… Work relat… Sven.Flecha Lucas.Alca…
 3     44     51 6/1/2014 08:58    Inspecti… Work relat… Kanon.Herr… Felix.Resu…
 4     44     52 6/1/2014 08:58    Inspecti… Work relat… Kanon.Herr… Hideki.Coc…
 5     44     53 6/1/2014 08:58    Inspecti… Work relat… Kanon.Herr… Inga.Ferro 
 6     44     45 6/1/2014 08:58    Inspecti… Work relat… Kanon.Herr… Varja.Lagos
 7     44     44 6/1/2014 08:58    Inspecti… Work relat… Kanon.Herr… Kanon.Herr…
 8     44     46 6/1/2014 08:58    Inspecti… Work relat… Kanon.Herr… Stenig.Fus…
 9     44     48 6/1/2014 08:58    Inspecti… Work relat… Kanon.Herr… Hennie.Osv…
10     44     49 6/1/2014 08:58    Inspecti… Work relat… Kanon.Herr… Isia.Vann  
# ℹ 9,053 more rows
# ℹ 2 more variables: SendDate <date>, Weekday <ord>
…
The output data.frame is called GAStech_edges_aggregated.

A new field called Weight has been added in GAStech_edges_aggregated.

9.3.8 Reviewing the revised edges file

Table below shows the data structure of the reformatted GAStech_edges data frame

Code

list(GAStech_edges_aggregated)

[[1]]
# A tibble: 1,372 × 4
   source target Weekday   Weight
    <dbl>  <dbl> <ord>      <int>
 1      1      2 Sunday         5
 2      1      2 Monday         2
 3      1      2 Tuesday        3
 4      1      2 Wednesday      4
 5      1      2 Friday         6
 6      1      3 Sunday         5
 7      1      3 Monday         2
 8      1      3 Tuesday        3
 9      1      3 Wednesday      4
10      1      3 Friday         6
# ℹ 1,362 more rows
…
